Day 1 - AM - Learn R
…
install.packages("package-name")

library(package-name)

Read the data

Let’s load the readr package to use the read_csv() function.

#install.packages("readr")
library(readr)

read_csv("https://itep-r.netlify.com/data/starwars_scrap_jakku.csv")

## # A tibble: 1,132 × 7
##    receipt_date item             origin destination amount units price_per_pound
##    <chr>        <chr>            <chr>  <chr>        <dbl> <chr>           <dbl>
##  1 4/1/2013     Flight recorder  Outsk… Niima Outp…    887 Tons             591.
##  2 4/2/2013     Proximity sensor Outsk… Raiders       7081 Tons            1229.
##  3 4/3/2013     Vitus-Series At… Reest… Raiders       4901 Tons             226.
##  4 4/4/2013     Aural sensor     Tuanul Raiders        707 Tons             145.
##  5 4/5/2013     Electromagnetic… Tuanul Niima Outp…    107 Tons             188.
##  6 4/6/2013     Proximity sensor Tuanul Trade cara…  32109 Tons            1229.
##  7 4/7/2013     Hyperdrive moti… Tuanul Trade cara…    862 Tons            1485.
##  8 4/8/2013     Landing jet      Reest… Niima Outp…  13944 Tons            1497.
##  9 4/9/2013     Electromagnetic… Crate… Raiders       7788 Tons             188.
## 10 4/10/2013    Sublight engine  Outsk… Niima Outp…  10642 Tons            7211.
## # … with 1,122 more rows

Name the data

Where did the data go after you read it into R? When we want to work with the data in R, we need to give it a name with the assignment operator: <-.

# Read in scrap data and set name to "scrap"
scrap <- read_csv("https://itep-r.netlify.com/data/starwars_scrap_jakku.csv")

# Type the name of the table to view it in the console
scrap

## # A tibble: 1,132 × 7
##    receipt_date item             origin destination amount units price_per_pound
##    <chr>        <chr>            <chr>  <chr>        <dbl> <chr>           <dbl>
##  1 4/1/2013     Flight recorder  Outsk… Niima Outp…    887 Tons             591.
##  2 4/2/2013     Proximity sensor Outsk… Raiders       7081 Tons            1229.
##  3 4/3/2013     Vitus-Series At… Reest… Raiders       4901 Tons             226.
##  4 4/4/2013     Aural sensor     Tuanul Raiders        707 Tons             145.
##  5 4/5/2013     Electromagnetic… Tuanul Niima Outp…    107 Tons             188.
##  6 4/6/2013     Proximity sensor Tuanul Trade cara…  32109 Tons            1229.
##  7 4/7/2013     Hyperdrive moti… Tuanul Trade cara…    862 Tons            1485.
##  8 4/8/2013     Landing jet      Reest… Niima Outp…  13944 Tons            1497.
##  9 4/9/2013     Electromagnetic… Crate… Raiders       7788 Tons             188.
## 10 4/10/2013    Sublight engine  Outsk… Niima Outp…  10642 Tons            7211.
## # … with 1,122 more rows
…
