Day 1 - PM - Learn R
…
Pull-out a few columns to create a new table

Rearrange or change the order of columns

Drop columns with a minus sign: -col_name

library(dplyr)
library(readr)

scrap <- read_csv("https://mn-r.netlify.app/data/starwars_scrap_jakku.csv")

# Drop the destination column
select(scrap, -destination)

## # A tibble: 1,132 × 6
##    receipt_date item                             origin     amount units price…¹
##    <chr>        <chr>                            <chr>       <dbl> <chr>   <dbl>
##  1 4/1/2013     Flight recorder                  Outskirts     887 Tons     591.
##  2 4/2/2013     Proximity sensor                 Outskirts    7081 Tons    1229.
##  3 4/3/2013     Vitus-Series Attitude Thrusters  Reestki      4901 Tons     226.
##  4 4/4/2013     Aural sensor                     Tuanul        707 Tons     145.
##  5 4/5/2013     Electromagnetic discharge filter Tuanul        107 Tons     188.
##  6 4/6/2013     Proximity sensor                 Tuanul      32109 Tons    1229.
##  7 4/7/2013     Hyperdrive motivator             Tuanul        862 Tons    1485.
##  8 4/8/2013     Landing jet                      Reestki     13944 Tons    1497.
##  9 4/9/2013     Electromagnetic discharge filter Cratertown   7788 Tons     188.
## 10 4/10/2013    Sublight engine                  Outskirts   10642 Tons    7211.
## # … with 1,122 more rows, and abbreviated variable name ¹​price_per_pound
## # ℹ Use `print(n = ...)` to see more rows

Drop multiple columns

Use -c(col_name1, col_name2) or -col_name1, -col_name2 to drop multiple columns.

# Drop the destination and units columns
select(scrap, -c(destination, units, amount))

## # A tibble: 1,132 × 4
##    receipt_date item                             origin     price_per_pound
##    <chr>        <chr>                            <chr>                <dbl>
##  1 4/1/2013     Flight recorder                  Outskirts             591.
##  2 4/2/2013     Proximity sensor                 Outskirts            1229.
##  3 4/3/2013     Vitus-Series Attitude Thrusters  Reestki               226.
##  4 4/4/2013     Aural sensor                     Tuanul                145.
##  5 4/5/2013     Electromagnetic discharge filter Tuanul                188.
##  6 4/6/2013     Proximity sensor                 Tuanul               1229.
##  7 4/7/2013     Hyperdrive motivator             Tuanul               1485.
##  8 4/8/2013     Landing jet                      Reestki              1497.
##  9 4/9/2013     Electromagnetic discharge filter Cratertown            188.
## 10 4/10/2013    Sublight engine                  Outskirts            7211.
## # … with 1,122 more rows
## # ℹ Use `print(n = ...)` to see more rows

Keep only 3 columns

# Keep item, amount and price_per_pound columns
select(scrap, item, amount, price_per_pound)

## # A tibble: 1,132 × 3
##    item                             amount price_per_pound
##    <chr>                             <dbl>           <dbl>
##  1 Flight recorder                     887            591.
##  2 Proximity sensor                   7081           1229.
##  3 Vitus-Series Attitude Thrusters    4901            226.
##  4 Aural sensor                        707            145.
##  5 Electromagnetic discharge filter    107            188.
##  6 Proximity sensor                  32109           1229.
##  7 Hyperdrive motivator                862           1485.
##  8 Landing jet                       13944           1497.
##  9 Electromagnetic discharge filter   7788            188.
## 10 Sublight engine                   10642           7211.
## # … with 1,122 more rows
## # ℹ Use `print(n = ...)` to see more rows

Select everything() else

Select also works to change the order of columns.

The code below puts the item column first, and then the units and amount columns directly after item. We then add evertyhing() to keep evertyhing else the same.

# Make the `item`, `units`, and `amount` columns the first three columns
# Leave `everything()` else in the same order
select(scrap, item, units, amount, everything())

## # A tibble: 1,132 × 7
##    item                             units amount receip…¹ origin desti…² price…³
##    <chr>                            <chr>  <dbl> <chr>    <chr>  <chr>     <dbl>
##  1 Flight recorder                  Tons     887 4/1/2013 Outsk… Niima …    591.
##  2 Proximity sensor                 Tons    7081 4/2/2013 Outsk… Raiders   1229.
##  3 Vitus-Series Attitude Thrusters  Tons    4901 4/3/2013 Reest… Raiders    226.
##  4 Aural sensor                     Tons     707 4/4/2013 Tuanul Raiders    145.
##  5 Electromagnetic discharge filter Tons     107 4/5/2013 Tuanul Niima …    188.
##  6 Proximity sensor                 Tons   32109 4/6/2013 Tuanul Trade …   1229.
##  7 Hyperdrive motivator             Tons     862 4/7/2013 Tuanul Trade …   1485.
##  8 Landing jet                      Tons   13944 4/8/2013 Reest… Niima …   1497.
##  9 Electromagnetic discharge filter Tons    7788 4/9/2013 Crate… Raiders    188.
## 10 Sublight engine                  Tons   10642 4/10/20… Outsk… Niima …   7211.
## # … with 1,122 more rows, and abbreviated variable names ¹​receipt_date,
## #   ²​destination, ³​price_per_pound
## # ℹ Use `print(n = ...)` to see more rows
…
