Day 2 - AM - Learn R
…
## Rows: 1,190
## Columns: 8
## $ analyte        <chr> "1-Methylnaphthalene", "1-Methylnaphthalene", "1-Methyl…
## $ lab_code       <chr> "HV-403", "HV-408", "HV-411", "HV-415", "HV-418", "HV-4…
## $ units          <chr> "ng/m3", "ng/m3", "ng/m3", "ng/m3", "ng/m3", "ng/m3", "…
## $ start_run_date <chr> "7/11/2016", "7/23/2016", "8/5/2016", "8/16/2016", "8/2…
## $ site_name      <chr> "battlesite1", "battlesite1", "battlesite1", "battlesit…
## $ long_site_name <chr> "Endor_Tana_forestmoon_battlesite1", "Endor_Tana_forest…
## $ planet         <chr> "Endor", "Endor", "Endor", "Endor", "Endor", "Endor", "…
## $ result         <dbl> 0.00291, 0.00000, 0.00000, 0.00608, 0.00000, 0.00000, 0…

distinct(air_endor, analyte)

## # A tibble: 27 × 1
##    analyte             
##    <chr>               
##  1 1-Methylnaphthalene 
##  2 2-Methylnaphthalene 
##  3 5-Methylchrysene    
##  4 Acenaphthene        
##  5 Anthanthrene        
##  6 Benz[a]anthracene   
##  7 Benzo[a]pyrene      
##  8 Benzo[c]fluorene    
##  9 Benzo[e]pyrene      
## 10 Benzo[g,h,i]perylene
## # … with 17 more rows
…
